%YAML 1.1
%TAG !u! tag:unity3d.com,2011:
--- !u!1001 &100100000
Prefab:
  m_ObjectHideFlags: 1
  serializedVersion: 2
  m_Modification:
    m_TransformParent: {fileID: 0}
    m_Modifications: []
    m_RemovedComponents: []
  m_SourcePrefab: {fileID: 0}
  m_RootGameObject: {fileID: 1640737333224850}
  m_IsPrefabAsset: 1
--- !u!1 &1640737333224850
GameObject:
  m_ObjectHideFlags: 0
  m_CorrespondingSourceObject: {fileID: 0}
  m_PrefabInternal: {fileID: 100100000}
  serializedVersion: 6
  m_Component:
  - component: {fileID: 4046559530673918}
  - component: {fileID: 114027098793880856}
  m_Layer: 0
  m_Name: AudioManager
  m_TagString: Untagged
  m_Icon: {fileID: 0}
  m_NavMeshLayer: 0
  m_StaticEditorFlags: 0
  m_IsActive: 1
--- !u!4 &4046559530673918
Transform:
  m_ObjectHideFlags: 1
  m_CorrespondingSourceObject: {fileID: 0}
  m_PrefabInternal: {fileID: 100100000}
  m_GameObject: {fileID: 1640737333224850}
  m_LocalRotation: {x: 0, y: 0, z: 0, w: 1}
  m_LocalPosition: {x: -7.1398616, y: -12.633402, z: -0.31659052}
  m_LocalScale: {x: 1, y: 1, z: 1}
  m_Children: []
  m_Father: {fileID: 0}
  m_RootOrder: 0
  m_LocalEulerAnglesHint: {x: 0, y: 0, z: 0}
--- !u!114 &114027098793880856
MonoBehaviour:
  m_ObjectHideFlags: 1
  m_CorrespondingSourceObject: {fileID: 0}
  m_PrefabInternal: {fileID: 100100000}
  m_GameObject: {fileID: 1640737333224850}
  m_Enabled: 1
  m_EditorHideFlags: 0
  m_Script: {fileID: 11500000, guid: ba43330009e8a7b49a57237d91ca6528, type: 3}
  m_Name: 
  m_EditorClassIdentifier: 
  sounds:
  - name: CannonShoot
    clip: {fileID: 8300000, guid: 49e041e9625d49f4a93f851ad70a22a7, type: 3}
    volume: 0.5
    pitch: 1
    source: {fileID: 0}
    loop: 0
  - name: LevelTheme
    clip: {fileID: 8300000, guid: d5754b123688ff8458b98ec5c12b3283, type: 3}
    volume: 0.5
    pitch: 1
    source: {fileID: 0}
    loop: 1
