%YAML 1.1
%TAG !u! tag:unity3d.com,2011:
--- !u!114 &11400000
MonoBehaviour:
  m_ObjectHideFlags: 0
  m_CorrespondingSourceObject: {fileID: 0}
  m_PrefabInternal: {fileID: 0}
  m_GameObject: {fileID: 0}
  m_Enabled: 1
  m_EditorHideFlags: 0
  m_Script: {fileID: 11500000, guid: a98938dc52b45fc4383c42908ef2cfb3, type: 3}
  m_Name: Helmet of Protection
  m_EditorClassIdentifier: 
  _name: Helmet of Protection
  _buyValue: 20
  _sellValue: 12
  _description: It's an awesome helmet.
  _maximumStackSize: 1
